…
Not perfect but not to bad. Next stop empirical Bayes estimate, then posterior probability and finally credible interval.


### Step 2: Using the Distribution as a Prior for Each Manager's Winning Average 

Since we have our prior probability distribution we can now calculate our posterior winning average for each manager by updating based on individual evidence. We do this by:
  
`$$Posterior\ Winning\ Estimate = \frac{\alpha + Games\ Won}{\alpha + \beta + Total\ Games\ Managed}$$`

Simple right.


```
## # A tibble: 218 x 13
##    managers        clubs    total_games_managed games_won games_drawn games_lost
##    <chr>           <chr>                  <dbl>     <dbl>       <dbl>      <dbl>
##  1 Eddie Howe      Bournem~                 114        34          30         50
##  2 Brue Rioch      Arsenal                   38        17          12          9
##  3 Arsene Wenger   Arsenal                  828       476         199        153
##  4 Stewart Houston Arsenal                   19         7           4          8
##  5 David O'Leary   Aston V~                 343       148          82        104
##  6 Jim Barron      Aston V~                   1         1           0          0
##  7 Tim Sherwood    Aston V~                  45        19           5         21
##  8 Graham Taylor   Aston V~                  89        21          19         49
##  9 Brian Little    Aston V~                 144        53          39         52
## 10 Remi Garde      Aston V~                  20         2           6         12
## # i 208 more rows
## # i 7 more variables: num_of_pl_seasons <dbl>, nationality <chr>,
## #   date_of_birth <date>, pl_debut <date>, debut_match <chr>, average <dbl>,
## #   eb_winning_average <dbl>
```
…
